module gitlab.com/Aitugan/task2

go 1.15

require (
	github.com/dgrijalva/jwt-go v3.2.0+incompatible
	github.com/gorilla/mux v1.8.0
	github.com/jinzhu/gorm v1.9.16
	github.com/joho/godotenv v1.3.0
	github.com/lib/pq v1.1.1
	golang.org/x/crypto v0.0.0-20201016220609-9e8e0b390897
)
